[
{
    "arguments": [
        "clang",
        "-I",
        "C:\\softApply\\Qt\\Tools\\QtCreator\\share\\qtcreator\\cplusplus\\wrappedQtHeaders",
        "-I",
        "C:\\softApply\\Qt\\Tools\\QtCreator\\share\\qtcreator\\cplusplus\\wrappedQtHeaders\\QtCore",
        "-I",
        "C:\\Users\\luohuiqing\\AppData\\Local\\Temp\\QtCreator-ltJfAT\\clang-uiheader-fXZtPS",
        "-nostdinc",
        "-nostdinc++",
        "--driver-mode=cl",
        "-nologo",
        "-Zc:wchar_t",
        "-FS",
        "-Zc:rvalueCast",
        "-Zc:inline",
        "-Zc:strictStrings",
        "-Zc:throwingNew",
        "-permissive-",
        "-Zc:__cplusplus",
        "-Zc:externConstexpr",
        "-MD",
        "-std:c++17",
        "-utf-8",
        "-W3",
        "-w34100",
        "-w34189",
        "-w44996",
        "-w44456",
        "-w44457",
        "-w44458",
        "-wd4577",
        "-wd4467",
        "-EHsc",
        "/Zs",
        "-m64",
        "--target=x86_64-pc-windows-msvc",
        "-fcxx-exceptions",
        "-fexceptions",
        "-fms-compatibility-version=19.32",
        "-DQ_CREATOR_RUN",
        "-DUNICODE",
        "-D_UNICODE",
        "-DWIN32",
        "-D_ENABLE_EXTENDED_ALIGNED_STORAGE",
        "-DWIN64",
        "-DNDEBUG",
        "-DQT_NO_DEBUG",
        "-DQT_QUICK_LIB",
        "-DQT_OPENGL_LIB",
        "-DQT_GUI_LIB",
        "-DQT_QMLMODELS_LIB",
        "-DQT_QML_LIB",
        "-DQT_NETWORK_LIB",
        "-DQT_CORE_LIB",
        "-D__FUNCSIG__=\"void __cdecl someLegalAndLongishFunctionNameThatWorksAroundQTCREATORBUG-24580(void)\"",
        "-D__FUNCTION__=\"someLegalAndLongishFunctionNameThatWorksAroundQTCREATORBUG-24580\"",
        "-D__FUNCDNAME__=\"?someLegalAndLongishFunctionNameThatWorksAroundQTCREATORBUG-24580@@YAXXZ\"",
        "-I",
        "C:\\LDEV\\opengl\\project\\sunengine\\SunEngine",
        "-I",
        "C:\\softApply\\Qt\\6.2.4\\msvc2019_64\\include",
        "-I",
        "C:\\softApply\\Qt\\6.2.4\\msvc2019_64\\include\\QtQuick",
        "-I",
        "C:\\softApply\\Qt\\6.2.4\\msvc2019_64\\include\\QtOpenGL",
        "-I",
        "C:\\softApply\\Qt\\6.2.4\\msvc2019_64\\include\\QtGui",
        "-I",
        "C:\\softApply\\Qt\\6.2.4\\msvc2019_64\\include\\QtQmlModels",
        "-I",
        "C:\\softApply\\Qt\\6.2.4\\msvc2019_64\\include\\QtQml",
        "-I",
        "C:\\softApply\\Qt\\6.2.4\\msvc2019_64\\include\\QtNetwork",
        "-I",
        "C:\\softApply\\Qt\\6.2.4\\msvc2019_64\\include\\QtCore",
        "-I",
        "C:\\LDEV\\opengl\\project\\sunengine\\SunEngine\\release",
        "-I",
        "C:\\softApply\\Qt\\6.2.4\\msvc2019_64\\mkspecs\\win32-msvc",
        "/clang:-isystem",
        "/clang:C:\\softApply\\Qt\\Tools\\QtCreator\\bin\\clang\\lib\\clang\\14.0.3\\include",
        "/clang:-isystem",
        "/clang:C:\\Program Files\\Microsoft Visual Studio\\2022\\Community\\VC\\Tools\\MSVC\\14.32.31326\\ATLMFC\\include",
        "/clang:-isystem",
        "/clang:C:\\Program Files\\Microsoft Visual Studio\\2022\\Community\\VC\\Tools\\MSVC\\14.32.31326\\include",
        "/clang:-isystem",
        "/clang:C:\\Program Files (x86)\\Windows Kits\\NETFXSDK\\4.8\\include\\um",
        "/clang:-isystem",
        "/clang:C:\\Program Files (x86)\\Windows Kits\\10\\include\\10.0.19041.0\\ucrt",
        "/clang:-isystem",
        "/clang:C:\\Program Files (x86)\\Windows Kits\\10\\\\include\\10.0.19041.0\\\\shared",
        "/clang:-isystem",
        "/clang:C:\\Program Files (x86)\\Windows Kits\\10\\\\include\\10.0.19041.0\\\\um",
        "/clang:-isystem",
        "/clang:C:\\Program Files (x86)\\Windows Kits\\10\\\\include\\10.0.19041.0\\\\winrt",
        "/clang:-isystem",
        "/clang:C:\\Program Files (x86)\\Windows Kits\\10\\\\include\\10.0.19041.0\\\\cppwinrt",
        "/clang:-fmessage-length=0",
        "/clang:-fdiagnostics-show-note-include-stack",
        "/clang:-fretain-comments-from-system-headers",
        "-fmacro-backtrace-limit=0",
        "-ferror-limit=1000",
        "/TP",
        "-Wno-unknown-pragmas",
        "-Wno-unknown-warning-option",
        "-Wno-documentation-unknown-command",
        "-fno-delayed-template-parsing",
        "C:\\LDEV\\opengl\\project\\sunengine\\SunEngine\\assist.cpp"
    ],
    "directory": "C:/LDEV/opengl/project/sunengine/SunEngine/.qtc_clangd",
    "file": "C:/LDEV/opengl/project/sunengine/SunEngine/assist.cpp"
},
{
    "arguments": [
        "clang",
        "-I",
        "C:\\softApply\\Qt\\Tools\\QtCreator\\share\\qtcreator\\cplusplus\\wrappedQtHeaders",
        "-I",
        "C:\\softApply\\Qt\\Tools\\QtCreator\\share\\qtcreator\\cplusplus\\wrappedQtHeaders\\QtCore",
        "-I",
        "C:\\Users\\luohuiqing\\AppData\\Local\\Temp\\QtCreator-ltJfAT\\clang-uiheader-fXZtPS",
        "-nostdinc",
        "-nostdinc++",
        "--driver-mode=cl",
        "-nologo",
        "-Zc:wchar_t",
        "-FS",
        "-Zc:rvalueCast",
        "-Zc:inline",
        "-Zc:strictStrings",
        "-Zc:throwingNew",
        "-permissive-",
        "-Zc:__cplusplus",
        "-Zc:externConstexpr",
        "-MD",
        "-std:c++17",
        "-utf-8",
        "-W3",
        "-w34100",
        "-w34189",
        "-w44996",
        "-w44456",
        "-w44457",
        "-w44458",
        "-wd4577",
        "-wd4467",
        "-EHsc",
        "/Zs",
        "-m64",
        "--target=x86_64-pc-windows-msvc",
        "-fcxx-exceptions",
        "-fexceptions",
        "-fms-compatibility-version=19.32",
        "-DQ_CREATOR_RUN",
        "-DUNICODE",
        "-D_UNICODE",
        "-DWIN32",
        "-D_ENABLE_EXTENDED_ALIGNED_STORAGE",
        "-DWIN64",
        "-DNDEBUG",
        "-DQT_NO_DEBUG",
        "-DQT_QUICK_LIB",
        "-DQT_OPENGL_LIB",
        "-DQT_GUI_LIB",
        "-DQT_QMLMODELS_LIB",
        "-DQT_QML_LIB",
        "-DQT_NETWORK_LIB",
        "-DQT_CORE_LIB",
        "-D__FUNCSIG__=\"void __cdecl someLegalAndLongishFunctionNameThatWorksAroundQTCREATORBUG-24580(void)\"",
        "-D__FUNCTION__=\"someLegalAndLongishFunctionNameThatWorksAroundQTCREATORBUG-24580\"",
        "-D__FUNCDNAME__=\"?someLegalAndLongishFunctionNameThatWorksAroundQTCREATORBUG-24580@@YAXXZ\"",
        "-I",
        "C:\\LDEV\\opengl\\project\\sunengine\\SunEngine",
        "-I",
        "C:\\softApply\\Qt\\6.2.4\\msvc2019_64\\include",
        "-I",
        "C:\\softApply\\Qt\\6.2.4\\msvc2019_64\\include\\QtQuick",
        "-I",
        "C:\\softApply\\Qt\\6.2.4\\msvc2019_64\\include\\QtOpenGL",
        "-I",
        "C:\\softApply\\Qt\\6.2.4\\msvc2019_64\\include\\QtGui",
        "-I",
        "C:\\softApply\\Qt\\6.2.4\\msvc2019_64\\include\\QtQmlModels",
        "-I",
        "C:\\softApply\\Qt\\6.2.4\\msvc2019_64\\include\\QtQml",
        "-I",
        "C:\\softApply\\Qt\\6.2.4\\msvc2019_64\\include\\QtNetwork",
        "-I",
        "C:\\softApply\\Qt\\6.2.4\\msvc2019_64\\include\\QtCore",
        "-I",
        "C:\\LDEV\\opengl\\project\\sunengine\\SunEngine\\release",
        "-I",
        "C:\\softApply\\Qt\\6.2.4\\msvc2019_64\\mkspecs\\win32-msvc",
        "/clang:-isystem",
        "/clang:C:\\softApply\\Qt\\Tools\\QtCreator\\bin\\clang\\lib\\clang\\14.0.3\\include",
        "/clang:-isystem",
        "/clang:C:\\Program Files\\Microsoft Visual Studio\\2022\\Community\\VC\\Tools\\MSVC\\14.32.31326\\ATLMFC\\include",
        "/clang:-isystem",
        "/clang:C:\\Program Files\\Microsoft Visual Studio\\2022\\Community\\VC\\Tools\\MSVC\\14.32.31326\\include",
        "/clang:-isystem",
        "/clang:C:\\Program Files (x86)\\Windows Kits\\NETFXSDK\\4.8\\include\\um",
        "/clang:-isystem",
        "/clang:C:\\Program Files (x86)\\Windows Kits\\10\\include\\10.0.19041.0\\ucrt",
        "/clang:-isystem",
        "/clang:C:\\Program Files (x86)\\Windows Kits\\10\\\\include\\10.0.19041.0\\\\shared",
        "/clang:-isystem",
        "/clang:C:\\Program Files (x86)\\Windows Kits\\10\\\\include\\10.0.19041.0\\\\um",
        "/clang:-isystem",
        "/clang:C:\\Program Files (x86)\\Windows Kits\\10\\\\include\\10.0.19041.0\\\\winrt",
        "/clang:-isystem",
        "/clang:C:\\Program Files (x86)\\Windows Kits\\10\\\\include\\10.0.19041.0\\\\cppwinrt",
        "/clang:-fmessage-length=0",
        "/clang:-fdiagnostics-show-note-include-stack",
        "/clang:-fretain-comments-from-system-headers",
        "-fmacro-backtrace-limit=0",
        "-ferror-limit=1000",
        "/TP",
        "-Wno-unknown-pragmas",
        "-Wno-unknown-warning-option",
        "-Wno-documentation-unknown-command",
        "-fno-delayed-template-parsing",
        "C:\\LDEV\\opengl\\project\\sunengine\\SunEngine\\main.cpp"
    ],
    "directory": "C:/LDEV/opengl/project/sunengine/SunEngine/.qtc_clangd",
    "file": "C:/LDEV/opengl/project/sunengine/SunEngine/main.cpp"
},
{
    "arguments": [
        "clang",
        "-I",
        "C:\\softApply\\Qt\\Tools\\QtCreator\\share\\qtcreator\\cplusplus\\wrappedQtHeaders",
        "-I",
        "C:\\softApply\\Qt\\Tools\\QtCreator\\share\\qtcreator\\cplusplus\\wrappedQtHeaders\\QtCore",
        "-I",
        "C:\\Users\\luohuiqing\\AppData\\Local\\Temp\\QtCreator-ltJfAT\\clang-uiheader-fXZtPS",
        "-nostdinc",
        "-nostdinc++",
        "--driver-mode=cl",
        "-nologo",
        "-Zc:wchar_t",
        "-FS",
        "-Zc:rvalueCast",
        "-Zc:inline",
        "-Zc:strictStrings",
        "-Zc:throwingNew",
        "-permissive-",
        "-Zc:__cplusplus",
        "-Zc:externConstexpr",
        "-MD",
        "-std:c++17",
        "-utf-8",
        "-W3",
        "-w34100",
        "-w34189",
        "-w44996",
        "-w44456",
        "-w44457",
        "-w44458",
        "-wd4577",
        "-wd4467",
        "-EHsc",
        "/Zs",
        "-m64",
        "--target=x86_64-pc-windows-msvc",
        "-fcxx-exceptions",
        "-fexceptions",
        "-fms-compatibility-version=19.32",
        "-DQ_CREATOR_RUN",
        "-DUNICODE",
        "-D_UNICODE",
        "-DWIN32",
        "-D_ENABLE_EXTENDED_ALIGNED_STORAGE",
        "-DWIN64",
        "-DNDEBUG",
        "-DQT_NO_DEBUG",
        "-DQT_QUICK_LIB",
        "-DQT_OPENGL_LIB",
        "-DQT_GUI_LIB",
        "-DQT_QMLMODELS_LIB",
        "-DQT_QML_LIB",
        "-DQT_NETWORK_LIB",
        "-DQT_CORE_LIB",
        "-D__FUNCSIG__=\"void __cdecl someLegalAndLongishFunctionNameThatWorksAroundQTCREATORBUG-24580(void)\"",
        "-D__FUNCTION__=\"someLegalAndLongishFunctionNameThatWorksAroundQTCREATORBUG-24580\"",
        "-D__FUNCDNAME__=\"?someLegalAndLongishFunctionNameThatWorksAroundQTCREATORBUG-24580@@YAXXZ\"",
        "-I",
        "C:\\LDEV\\opengl\\project\\sunengine\\SunEngine",
        "-I",
        "C:\\softApply\\Qt\\6.2.4\\msvc2019_64\\include",
        "-I",
        "C:\\softApply\\Qt\\6.2.4\\msvc2019_64\\include\\QtQuick",
        "-I",
        "C:\\softApply\\Qt\\6.2.4\\msvc2019_64\\include\\QtOpenGL",
        "-I",
        "C:\\softApply\\Qt\\6.2.4\\msvc2019_64\\include\\QtGui",
        "-I",
        "C:\\softApply\\Qt\\6.2.4\\msvc2019_64\\include\\QtQmlModels",
        "-I",
        "C:\\softApply\\Qt\\6.2.4\\msvc2019_64\\include\\QtQml",
        "-I",
        "C:\\softApply\\Qt\\6.2.4\\msvc2019_64\\include\\QtNetwork",
        "-I",
        "C:\\softApply\\Qt\\6.2.4\\msvc2019_64\\include\\QtCore",
        "-I",
        "C:\\LDEV\\opengl\\project\\sunengine\\SunEngine\\release",
        "-I",
        "C:\\softApply\\Qt\\6.2.4\\msvc2019_64\\mkspecs\\win32-msvc",
        "/clang:-isystem",
        "/clang:C:\\softApply\\Qt\\Tools\\QtCreator\\bin\\clang\\lib\\clang\\14.0.3\\include",
        "/clang:-isystem",
        "/clang:C:\\Program Files\\Microsoft Visual Studio\\2022\\Community\\VC\\Tools\\MSVC\\14.32.31326\\ATLMFC\\include",
        "/clang:-isystem",
        "/clang:C:\\Program Files\\Microsoft Visual Studio\\2022\\Community\\VC\\Tools\\MSVC\\14.32.31326\\include",
        "/clang:-isystem",
        "/clang:C:\\Program Files (x86)\\Windows Kits\\NETFXSDK\\4.8\\include\\um",
        "/clang:-isystem",
        "/clang:C:\\Program Files (x86)\\Windows Kits\\10\\include\\10.0.19041.0\\ucrt",
        "/clang:-isystem",
        "/clang:C:\\Program Files (x86)\\Windows Kits\\10\\\\include\\10.0.19041.0\\\\shared",
        "/clang:-isystem",
        "/clang:C:\\Program Files (x86)\\Windows Kits\\10\\\\include\\10.0.19041.0\\\\um",
        "/clang:-isystem",
        "/clang:C:\\Program Files (x86)\\Windows Kits\\10\\\\include\\10.0.19041.0\\\\winrt",
        "/clang:-isystem",
        "/clang:C:\\Program Files (x86)\\Windows Kits\\10\\\\include\\10.0.19041.0\\\\cppwinrt",
        "/clang:-fmessage-length=0",
        "/clang:-fdiagnostics-show-note-include-stack",
        "/clang:-fretain-comments-from-system-headers",
        "-fmacro-backtrace-limit=0",
        "-ferror-limit=1000",
        "/TP",
        "-Wno-unknown-pragmas",
        "-Wno-unknown-warning-option",
        "-Wno-documentation-unknown-command",
        "-fno-delayed-template-parsing",
        "C:\\LDEV\\opengl\\project\\sunengine\\SunEngine\\openglfunction.cpp"
    ],
    "directory": "C:/LDEV/opengl/project/sunengine/SunEngine/.qtc_clangd",
    "file": "C:/LDEV/opengl/project/sunengine/SunEngine/openglfunction.cpp"
},
{
    "arguments": [
        "clang",
        "-I",
        "C:\\softApply\\Qt\\Tools\\QtCreator\\share\\qtcreator\\cplusplus\\wrappedQtHeaders",
        "-I",
        "C:\\softApply\\Qt\\Tools\\QtCreator\\share\\qtcreator\\cplusplus\\wrappedQtHeaders\\QtCore",
        "-I",
        "C:\\Users\\luohuiqing\\AppData\\Local\\Temp\\QtCreator-ltJfAT\\clang-uiheader-fXZtPS",
        "-nostdinc",
        "-nostdinc++",
        "--driver-mode=cl",
        "-nologo",
        "-Zc:wchar_t",
        "-FS",
        "-Zc:rvalueCast",
        "-Zc:inline",
        "-Zc:strictStrings",
        "-Zc:throwingNew",
        "-permissive-",
        "-Zc:__cplusplus",
        "-Zc:externConstexpr",
        "-MD",
        "-std:c++17",
        "-utf-8",
        "-W3",
        "-w34100",
        "-w34189",
        "-w44996",
        "-w44456",
        "-w44457",
        "-w44458",
        "-wd4577",
        "-wd4467",
        "-EHsc",
        "/Zs",
        "-m64",
        "--target=x86_64-pc-windows-msvc",
        "-fcxx-exceptions",
        "-fexceptions",
        "-fms-compatibility-version=19.32",
        "-DQ_CREATOR_RUN",
        "-DUNICODE",
        "-D_UNICODE",
        "-DWIN32",
        "-D_ENABLE_EXTENDED_ALIGNED_STORAGE",
        "-DWIN64",
        "-DNDEBUG",
        "-DQT_NO_DEBUG",
        "-DQT_QUICK_LIB",
        "-DQT_OPENGL_LIB",
        "-DQT_GUI_LIB",
        "-DQT_QMLMODELS_LIB",
        "-DQT_QML_LIB",
        "-DQT_NETWORK_LIB",
        "-DQT_CORE_LIB",
        "-D__FUNCSIG__=\"void __cdecl someLegalAndLongishFunctionNameThatWorksAroundQTCREATORBUG-24580(void)\"",
        "-D__FUNCTION__=\"someLegalAndLongishFunctionNameThatWorksAroundQTCREATORBUG-24580\"",
        "-D__FUNCDNAME__=\"?someLegalAndLongishFunctionNameThatWorksAroundQTCREATORBUG-24580@@YAXXZ\"",
        "-I",
        "C:\\LDEV\\opengl\\project\\sunengine\\SunEngine",
        "-I",
        "C:\\softApply\\Qt\\6.2.4\\msvc2019_64\\include",
        "-I",
        "C:\\softApply\\Qt\\6.2.4\\msvc2019_64\\include\\QtQuick",
        "-I",
        "C:\\softApply\\Qt\\6.2.4\\msvc2019_64\\include\\QtOpenGL",
        "-I",
        "C:\\softApply\\Qt\\6.2.4\\msvc2019_64\\include\\QtGui",
        "-I",
        "C:\\softApply\\Qt\\6.2.4\\msvc2019_64\\include\\QtQmlModels",
        "-I",
        "C:\\softApply\\Qt\\6.2.4\\msvc2019_64\\include\\QtQml",
        "-I",
        "C:\\softApply\\Qt\\6.2.4\\msvc2019_64\\include\\QtNetwork",
        "-I",
        "C:\\softApply\\Qt\\6.2.4\\msvc2019_64\\include\\QtCore",
        "-I",
        "C:\\LDEV\\opengl\\project\\sunengine\\SunEngine\\release",
        "-I",
        "C:\\softApply\\Qt\\6.2.4\\msvc2019_64\\mkspecs\\win32-msvc",
        "/clang:-isystem",
        "/clang:C:\\softApply\\Qt\\Tools\\QtCreator\\bin\\clang\\lib\\clang\\14.0.3\\include",
        "/clang:-isystem",
        "/clang:C:\\Program Files\\Microsoft Visual Studio\\2022\\Community\\VC\\Tools\\MSVC\\14.32.31326\\ATLMFC\\include",
        "/clang:-isystem",
        "/clang:C:\\Program Files\\Microsoft Visual Studio\\2022\\Community\\VC\\Tools\\MSVC\\14.32.31326\\include",
        "/clang:-isystem",
        "/clang:C:\\Program Files (x86)\\Windows Kits\\NETFXSDK\\4.8\\include\\um",
        "/clang:-isystem",
        "/clang:C:\\Program Files (x86)\\Windows Kits\\10\\include\\10.0.19041.0\\ucrt",
        "/clang:-isystem",
        "/clang:C:\\Program Files (x86)\\Windows Kits\\10\\\\include\\10.0.19041.0\\\\shared",
        "/clang:-isystem",
        "/clang:C:\\Program Files (x86)\\Windows Kits\\10\\\\include\\10.0.19041.0\\\\um",
        "/clang:-isystem",
        "/clang:C:\\Program Files (x86)\\Windows Kits\\10\\\\include\\10.0.19041.0\\\\winrt",
        "/clang:-isystem",
        "/clang:C:\\Program Files (x86)\\Windows Kits\\10\\\\include\\10.0.19041.0\\\\cppwinrt",
        "/clang:-fmessage-length=0",
        "/clang:-fdiagnostics-show-note-include-stack",
        "/clang:-fretain-comments-from-system-headers",
        "-fmacro-backtrace-limit=0",
        "-ferror-limit=1000",
        "/TP",
        "-Wno-unknown-pragmas",
        "-Wno-unknown-warning-option",
        "-Wno-documentation-unknown-command",
        "-fno-delayed-template-parsing",
        "C:\\LDEV\\opengl\\project\\sunengine\\SunEngine\\sunengineopengl.cpp"
    ],
    "directory": "C:/LDEV/opengl/project/sunengine/SunEngine/.qtc_clangd",
    "file": "C:/LDEV/opengl/project/sunengine/SunEngine/sunengineopengl.cpp"
},
{
    "arguments": [
        "clang",
        "-I",
        "C:\\softApply\\Qt\\Tools\\QtCreator\\share\\qtcreator\\cplusplus\\wrappedQtHeaders",
        "-I",
        "C:\\softApply\\Qt\\Tools\\QtCreator\\share\\qtcreator\\cplusplus\\wrappedQtHeaders\\QtCore",
        "-I",
        "C:\\Users\\luohuiqing\\AppData\\Local\\Temp\\QtCreator-ltJfAT\\clang-uiheader-fXZtPS",
        "-nostdinc",
        "-nostdinc++",
        "--driver-mode=cl",
        "-nologo",
        "-Zc:wchar_t",
        "-FS",
        "-Zc:rvalueCast",
        "-Zc:inline",
        "-Zc:strictStrings",
        "-Zc:throwingNew",
        "-permissive-",
        "-Zc:__cplusplus",
        "-Zc:externConstexpr",
        "-MD",
        "-std:c++17",
        "-utf-8",
        "-W3",
        "-w34100",
        "-w34189",
        "-w44996",
        "-w44456",
        "-w44457",
        "-w44458",
        "-wd4577",
        "-wd4467",
        "-EHsc",
        "/Zs",
        "-m64",
        "--target=x86_64-pc-windows-msvc",
        "-fcxx-exceptions",
        "-fexceptions",
        "-fms-compatibility-version=19.32",
        "-DQ_CREATOR_RUN",
        "-DUNICODE",
        "-D_UNICODE",
        "-DWIN32",
        "-D_ENABLE_EXTENDED_ALIGNED_STORAGE",
        "-DWIN64",
        "-DNDEBUG",
        "-DQT_NO_DEBUG",
        "-DQT_QUICK_LIB",
        "-DQT_OPENGL_LIB",
        "-DQT_GUI_LIB",
        "-DQT_QMLMODELS_LIB",
        "-DQT_QML_LIB",
        "-DQT_NETWORK_LIB",
        "-DQT_CORE_LIB",
        "-D__FUNCSIG__=\"void __cdecl someLegalAndLongishFunctionNameThatWorksAroundQTCREATORBUG-24580(void)\"",
        "-D__FUNCTION__=\"someLegalAndLongishFunctionNameThatWorksAroundQTCREATORBUG-24580\"",
        "-D__FUNCDNAME__=\"?someLegalAndLongishFunctionNameThatWorksAroundQTCREATORBUG-24580@@YAXXZ\"",
        "-I",
        "C:\\LDEV\\opengl\\project\\sunengine\\SunEngine",
        "-I",
        "C:\\softApply\\Qt\\6.2.4\\msvc2019_64\\include",
        "-I",
        "C:\\softApply\\Qt\\6.2.4\\msvc2019_64\\include\\QtQuick",
        "-I",
        "C:\\softApply\\Qt\\6.2.4\\msvc2019_64\\include\\QtOpenGL",
        "-I",
        "C:\\softApply\\Qt\\6.2.4\\msvc2019_64\\include\\QtGui",
        "-I",
        "C:\\softApply\\Qt\\6.2.4\\msvc2019_64\\include\\QtQmlModels",
        "-I",
        "C:\\softApply\\Qt\\6.2.4\\msvc2019_64\\include\\QtQml",
        "-I",
        "C:\\softApply\\Qt\\6.2.4\\msvc2019_64\\include\\QtNetwork",
        "-I",
        "C:\\softApply\\Qt\\6.2.4\\msvc2019_64\\include\\QtCore",
        "-I",
        "C:\\LDEV\\opengl\\project\\sunengine\\SunEngine\\release",
        "-I",
        "C:\\softApply\\Qt\\6.2.4\\msvc2019_64\\mkspecs\\win32-msvc",
        "/clang:-isystem",
        "/clang:C:\\softApply\\Qt\\Tools\\QtCreator\\bin\\clang\\lib\\clang\\14.0.3\\include",
        "/clang:-isystem",
        "/clang:C:\\Program Files\\Microsoft Visual Studio\\2022\\Community\\VC\\Tools\\MSVC\\14.32.31326\\ATLMFC\\include",
        "/clang:-isystem",
        "/clang:C:\\Program Files\\Microsoft Visual Studio\\2022\\Community\\VC\\Tools\\MSVC\\14.32.31326\\include",
        "/clang:-isystem",
        "/clang:C:\\Program Files (x86)\\Windows Kits\\NETFXSDK\\4.8\\include\\um",
        "/clang:-isystem",
        "/clang:C:\\Program Files (x86)\\Windows Kits\\10\\include\\10.0.19041.0\\ucrt",
        "/clang:-isystem",
        "/clang:C:\\Program Files (x86)\\Windows Kits\\10\\\\include\\10.0.19041.0\\\\shared",
        "/clang:-isystem",
        "/clang:C:\\Program Files (x86)\\Windows Kits\\10\\\\include\\10.0.19041.0\\\\um",
        "/clang:-isystem",
        "/clang:C:\\Program Files (x86)\\Windows Kits\\10\\\\include\\10.0.19041.0\\\\winrt",
        "/clang:-isystem",
        "/clang:C:\\Program Files (x86)\\Windows Kits\\10\\\\include\\10.0.19041.0\\\\cppwinrt",
        "/clang:-fmessage-length=0",
        "/clang:-fdiagnostics-show-note-include-stack",
        "/clang:-fretain-comments-from-system-headers",
        "-fmacro-backtrace-limit=0",
        "-ferror-limit=1000",
        "/TP",
        "-Wno-unknown-pragmas",
        "-Wno-unknown-warning-option",
        "-Wno-documentation-unknown-command",
        "-fno-delayed-template-parsing",
        "C:\\LDEV\\opengl\\project\\sunengine\\SunEngine\\assist.h"
    ],
    "directory": "C:/LDEV/opengl/project/sunengine/SunEngine/.qtc_clangd",
    "file": "C:/LDEV/opengl/project/sunengine/SunEngine/assist.h"
},
{
    "arguments": [
        "clang",
        "-I",
        "C:\\softApply\\Qt\\Tools\\QtCreator\\share\\qtcreator\\cplusplus\\wrappedQtHeaders",
        "-I",
        "C:\\softApply\\Qt\\Tools\\QtCreator\\share\\qtcreator\\cplusplus\\wrappedQtHeaders\\QtCore",
        "-I",
        "C:\\Users\\luohuiqing\\AppData\\Local\\Temp\\QtCreator-ltJfAT\\clang-uiheader-fXZtPS",
        "-nostdinc",
        "-nostdinc++",
        "--driver-mode=cl",
        "-nologo",
        "-Zc:wchar_t",
        "-FS",
        "-Zc:rvalueCast",
        "-Zc:inline",
        "-Zc:strictStrings",
        "-Zc:throwingNew",
        "-permissive-",
        "-Zc:__cplusplus",
        "-Zc:externConstexpr",
        "-MD",
        "-std:c++17",
        "-utf-8",
        "-W3",
        "-w34100",
        "-w34189",
        "-w44996",
        "-w44456",
        "-w44457",
        "-w44458",
        "-wd4577",
        "-wd4467",
        "-EHsc",
        "/Zs",
        "-m64",
        "--target=x86_64-pc-windows-msvc",
        "-fcxx-exceptions",
        "-fexceptions",
        "-fms-compatibility-version=19.32",
        "-DQ_CREATOR_RUN",
        "-DUNICODE",
        "-D_UNICODE",
        "-DWIN32",
        "-D_ENABLE_EXTENDED_ALIGNED_STORAGE",
        "-DWIN64",
        "-DNDEBUG",
        "-DQT_NO_DEBUG",
        "-DQT_QUICK_LIB",
        "-DQT_OPENGL_LIB",
        "-DQT_GUI_LIB",
        "-DQT_QMLMODELS_LIB",
        "-DQT_QML_LIB",
        "-DQT_NETWORK_LIB",
        "-DQT_CORE_LIB",
        "-D__FUNCSIG__=\"void __cdecl someLegalAndLongishFunctionNameThatWorksAroundQTCREATORBUG-24580(void)\"",
        "-D__FUNCTION__=\"someLegalAndLongishFunctionNameThatWorksAroundQTCREATORBUG-24580\"",
        "-D__FUNCDNAME__=\"?someLegalAndLongishFunctionNameThatWorksAroundQTCREATORBUG-24580@@YAXXZ\"",
        "-I",
        "C:\\LDEV\\opengl\\project\\sunengine\\SunEngine",
        "-I",
        "C:\\softApply\\Qt\\6.2.4\\msvc2019_64\\include",
        "-I",
        "C:\\softApply\\Qt\\6.2.4\\msvc2019_64\\include\\QtQuick",
        "-I",
        "C:\\softApply\\Qt\\6.2.4\\msvc2019_64\\include\\QtOpenGL",
        "-I",
        "C:\\softApply\\Qt\\6.2.4\\msvc2019_64\\include\\QtGui",
        "-I",
        "C:\\softApply\\Qt\\6.2.4\\msvc2019_64\\include\\QtQmlModels",
        "-I",
        "C:\\softApply\\Qt\\6.2.4\\msvc2019_64\\include\\QtQml",
        "-I",
        "C:\\softApply\\Qt\\6.2.4\\msvc2019_64\\include\\QtNetwork",
        "-I",
        "C:\\softApply\\Qt\\6.2.4\\msvc2019_64\\include\\QtCore",
        "-I",
        "C:\\LDEV\\opengl\\project\\sunengine\\SunEngine\\release",
        "-I",
        "C:\\softApply\\Qt\\6.2.4\\msvc2019_64\\mkspecs\\win32-msvc",
        "/clang:-isystem",
        "/clang:C:\\softApply\\Qt\\Tools\\QtCreator\\bin\\clang\\lib\\clang\\14.0.3\\include",
        "/clang:-isystem",
        "/clang:C:\\Program Files\\Microsoft Visual Studio\\2022\\Community\\VC\\Tools\\MSVC\\14.32.31326\\ATLMFC\\include",
        "/clang:-isystem",
        "/clang:C:\\Program Files\\Microsoft Visual Studio\\2022\\Community\\VC\\Tools\\MSVC\\14.32.31326\\include",
        "/clang:-isystem",
        "/clang:C:\\Program Files (x86)\\Windows Kits\\NETFXSDK\\4.8\\include\\um",
        "/clang:-isystem",
        "/clang:C:\\Program Files (x86)\\Windows Kits\\10\\include\\10.0.19041.0\\ucrt",
        "/clang:-isystem",
        "/clang:C:\\Program Files (x86)\\Windows Kits\\10\\\\include\\10.0.19041.0\\\\shared",
        "/clang:-isystem",
        "/clang:C:\\Program Files (x86)\\Windows Kits\\10\\\\include\\10.0.19041.0\\\\um",
        "/clang:-isystem",
        "/clang:C:\\Program Files (x86)\\Windows Kits\\10\\\\include\\10.0.19041.0\\\\winrt",
        "/clang:-isystem",
        "/clang:C:\\Program Files (x86)\\Windows Kits\\10\\\\include\\10.0.19041.0\\\\cppwinrt",
        "/clang:-fmessage-length=0",
        "/clang:-fdiagnostics-show-note-include-stack",
        "/clang:-fretain-comments-from-system-headers",
        "-fmacro-backtrace-limit=0",
        "-ferror-limit=1000",
        "/TP",
        "-Wno-unknown-pragmas",
        "-Wno-unknown-warning-option",
        "-Wno-documentation-unknown-command",
        "-fno-delayed-template-parsing",
        "C:\\LDEV\\opengl\\project\\sunengine\\SunEngine\\openglfunction.h"
    ],
    "directory": "C:/LDEV/opengl/project/sunengine/SunEngine/.qtc_clangd",
    "file": "C:/LDEV/opengl/project/sunengine/SunEngine/openglfunction.h"
},
{
    "arguments": [
        "clang",
        "-I",
        "C:\\softApply\\Qt\\Tools\\QtCreator\\share\\qtcreator\\cplusplus\\wrappedQtHeaders",
        "-I",
        "C:\\softApply\\Qt\\Tools\\QtCreator\\share\\qtcreator\\cplusplus\\wrappedQtHeaders\\QtCore",
        "-I",
        "C:\\Users\\luohuiqing\\AppData\\Local\\Temp\\QtCreator-ltJfAT\\clang-uiheader-fXZtPS",
        "-nostdinc",
        "-nostdinc++",
        "--driver-mode=cl",
        "-nologo",
        "-Zc:wchar_t",
        "-FS",
        "-Zc:rvalueCast",
        "-Zc:inline",
        "-Zc:strictStrings",
        "-Zc:throwingNew",
        "-permissive-",
        "-Zc:__cplusplus",
        "-Zc:externConstexpr",
        "-MD",
        "-std:c++17",
        "-utf-8",
        "-W3",
        "-w34100",
        "-w34189",
        "-w44996",
        "-w44456",
        "-w44457",
        "-w44458",
        "-wd4577",
        "-wd4467",
        "-EHsc",
        "/Zs",
        "-m64",
        "--target=x86_64-pc-windows-msvc",
        "-fcxx-exceptions",
        "-fexceptions",
        "-fms-compatibility-version=19.32",
        "-DQ_CREATOR_RUN",
        "-DUNICODE",
        "-D_UNICODE",
        "-DWIN32",
        "-D_ENABLE_EXTENDED_ALIGNED_STORAGE",
        "-DWIN64",
        "-DNDEBUG",
        "-DQT_NO_DEBUG",
        "-DQT_QUICK_LIB",
        "-DQT_OPENGL_LIB",
        "-DQT_GUI_LIB",
        "-DQT_QMLMODELS_LIB",
        "-DQT_QML_LIB",
        "-DQT_NETWORK_LIB",
        "-DQT_CORE_LIB",
        "-D__FUNCSIG__=\"void __cdecl someLegalAndLongishFunctionNameThatWorksAroundQTCREATORBUG-24580(void)\"",
        "-D__FUNCTION__=\"someLegalAndLongishFunctionNameThatWorksAroundQTCREATORBUG-24580\"",
        "-D__FUNCDNAME__=\"?someLegalAndLongishFunctionNameThatWorksAroundQTCREATORBUG-24580@@YAXXZ\"",
        "-I",
        "C:\\LDEV\\opengl\\project\\sunengine\\SunEngine",
        "-I",
        "C:\\softApply\\Qt\\6.2.4\\msvc2019_64\\include",
        "-I",
        "C:\\softApply\\Qt\\6.2.4\\msvc2019_64\\include\\QtQuick",
        "-I",
        "C:\\softApply\\Qt\\6.2.4\\msvc2019_64\\include\\QtOpenGL",
        "-I",
        "C:\\softApply\\Qt\\6.2.4\\msvc2019_64\\include\\QtGui",
        "-I",
        "C:\\softApply\\Qt\\6.2.4\\msvc2019_64\\include\\QtQmlModels",
        "-I",
        "C:\\softApply\\Qt\\6.2.4\\msvc2019_64\\include\\QtQml",
        "-I",
        "C:\\softApply\\Qt\\6.2.4\\msvc2019_64\\include\\QtNetwork",
        "-I",
        "C:\\softApply\\Qt\\6.2.4\\msvc2019_64\\include\\QtCore",
        "-I",
        "C:\\LDEV\\opengl\\project\\sunengine\\SunEngine\\release",
        "-I",
        "C:\\softApply\\Qt\\6.2.4\\msvc2019_64\\mkspecs\\win32-msvc",
        "/clang:-isystem",
        "/clang:C:\\softApply\\Qt\\Tools\\QtCreator\\bin\\clang\\lib\\clang\\14.0.3\\include",
        "/clang:-isystem",
        "/clang:C:\\Program Files\\Microsoft Visual Studio\\2022\\Community\\VC\\Tools\\MSVC\\14.32.31326\\ATLMFC\\include",
        "/clang:-isystem",
        "/clang:C:\\Program Files\\Microsoft Visual Studio\\2022\\Community\\VC\\Tools\\MSVC\\14.32.31326\\include",
        "/clang:-isystem",
        "/clang:C:\\Program Files (x86)\\Windows Kits\\NETFXSDK\\4.8\\include\\um",
        "/clang:-isystem",
        "/clang:C:\\Program Files (x86)\\Windows Kits\\10\\include\\10.0.19041.0\\ucrt",
        "/clang:-isystem",
        "/clang:C:\\Program Files (x86)\\Windows Kits\\10\\\\include\\10.0.19041.0\\\\shared",
        "/clang:-isystem",
        "/clang:C:\\Program Files (x86)\\Windows Kits\\10\\\\include\\10.0.19041.0\\\\um",
        "/clang:-isystem",
        "/clang:C:\\Program Files (x86)\\Windows Kits\\10\\\\include\\10.0.19041.0\\\\winrt",
        "/clang:-isystem",
        "/clang:C:\\Program Files (x86)\\Windows Kits\\10\\\\include\\10.0.19041.0\\\\cppwinrt",
        "/clang:-fmessage-length=0",
        "/clang:-fdiagnostics-show-note-include-stack",
        "/clang:-fretain-comments-from-system-headers",
        "-fmacro-backtrace-limit=0",
        "-ferror-limit=1000",
        "/TP",
        "-Wno-unknown-pragmas",
        "-Wno-unknown-warning-option",
        "-Wno-documentation-unknown-command",
        "-fno-delayed-template-parsing",
        "C:\\LDEV\\opengl\\project\\sunengine\\SunEngine\\sunengineopengl.h"
    ],
    "directory": "C:/LDEV/opengl/project/sunengine/SunEngine/.qtc_clangd",
    "file": "C:/LDEV/opengl/project/sunengine/SunEngine/sunengineopengl.h"
}
]